%YAML 1.1
%TAG !u! tag:unity3d.com,2011:
--- !u!114 &11400000
MonoBehaviour:
  m_ObjectHideFlags: 0
  m_CorrespondingSourceObject: {fileID: 0}
  m_PrefabInternal: {fileID: 0}
  m_GameObject: {fileID: 0}
  m_Enabled: 1
  m_EditorHideFlags: 0
  m_Script: {fileID: 11500000, guid: f6f04e79c6b14dfb9b4a1fb54a778c3e, type: 3}
  m_Name: Attack1
  m_EditorClassIdentifier: 
  Actions:
  - {fileID: 11400000, guid: f1e16df5558e8a34b8f06b927a3d6874, type: 2}
  AiTransitions:
  - Condition: {fileID: 11400000, guid: d069f9385f2fdc249a241659ec830c44, type: 2}
    TrueAiState: {fileID: 11400000, guid: 8db8dd251eb41864c8613821da49f73a, type: 2}
    FalseAiState: {fileID: 11400000}
