%YAML 1.1
%TAG !u! tag:unity3d.com,2011:
--- !u!114 &11400000
MonoBehaviour:
  m_ObjectHideFlags: 0
  m_CorrespondingSourceObject: {fileID: 0}
  m_PrefabInternal: {fileID: 0}
  m_GameObject: {fileID: 0}
  m_Enabled: 1
  m_EditorHideFlags: 0
  m_Script: {fileID: 11500000, guid: f6f04e79c6b14dfb9b4a1fb54a778c3e, type: 3}
  m_Name: Move2
  m_EditorClassIdentifier: 
  Actions:
  - {fileID: 11400000, guid: 964bbb1912009a644ba34ab33ad1da75, type: 2}
  AiTransitions:
  - Condition: {fileID: 11400000, guid: 2316c2e76a8c0b344b2f93c8bcfcd3a7, type: 2}
    TrueAiState: {fileID: 11400000, guid: 55777f8c80997fb4b9e49d9a825ef7b7, type: 2}
    FalseAiState: {fileID: 11400000}
