%YAML 1.1
%TAG !u! tag:unity3d.com,2011:
--- !u!114 &11400000
MonoBehaviour:
  m_ObjectHideFlags: 0
  m_CorrespondingSourceObject: {fileID: 0}
  m_PrefabInternal: {fileID: 0}
  m_GameObject: {fileID: 0}
  m_Enabled: 1
  m_EditorHideFlags: 0
  m_Script: {fileID: 11500000, guid: 91ee9bcb5bbc92e4fad6dd50f2b265b0, type: 3}
  m_Name: BossStats
  m_EditorClassIdentifier: 
  Life: 24
  Damages: 0
  CurrentLife: 0
